[
    {
        "sobreposta":"KAZAAR.png",
        "fundo":"KAZAAR-FUNDO.jpg",
        "nome":"KAZAAR",
        "intensidade":"5",
        "perfil":"intenso",
        "tamanho":["25", "40"],
        "descricao":"A mais compacta da familia"
    },
    {
        "sobreposta":"",
        "fundo":"",
        "nome":"",
        "intensidade":"",
        "perfil":"",
        "tamanho":[""],
        "descricao":""
    }
]