[
    {
        "img":"img/Essenza Mini Red.png",
        "nome":"ESSENZA MINI",
        "descricao":"A mais compacta da familia",
        "cores":["vermelho", "preto"],
        "link": ""
    },
    {
        "img":"",
        "nome":"",
        "descricao":"",
        "cores":[""],
        "link": ""
    }
]