<?xml version="1.0" encoding="utf-8"?>
<!-- Generator: Adobe Illustrator 22.1.0, SVG Export Plug-In . SVG Version: 6.00 Build 0)  -->
<svg version="1.1" id="Layer_1" xmlns="http://www.w3.org/2000/svg" xmlns:xlink="http://www.w3.org/1999/xlink" x="0px" y="0px"
	 viewBox="0 0 71 49" style="enable-background:new 0 0 71 49;" xml:space="preserve">
<style type="text/css">
	.st0{fill:none;stroke:#FFFFFF;stroke-width:0.996;stroke-linejoin:bevel;stroke-miterlimit:10;}
	.st1{fill:#FFFFFF;}
</style>
<line class="st0" x1="23.6" y1="18.6" x2="46.4" y2="18.6"/>
<line class="st0" x1="23.6" y1="23.8" x2="46.4" y2="23.8"/>
<line class="st0" x1="23.6" y1="29" x2="46.4" y2="29"/>
<line class="st0" x1="23.6" y1="34.2" x2="46.4" y2="34.2"/>
<path class="st0" d="M21.1,13L9.9,12.8v2.1h1.1v27.6H21l0.1-33.3h29v2.9c0,0,2.8-0.8,4.5,1.5c1.7,2.4,1.1,7.4,1.1,7.4h-2.7v-2.4
	h-2.5v4.6h-1.6v11h9.3L50,42.5H21"/>
<line class="st0" x1="10.9" y1="19.8" x2="21.1" y2="19.8"/>
<path class="st1" d="M57.6,13.8H53h-6.8c-0.4,0-0.8,0-1.2-0.1c-0.7-0.2-1.4-0.7-2.1-0.7c-0.6,0-1.1,0.6-1.1,1.2c0,1.1,1.1,1.3,1.9,1
	c1.3-0.5,2.5-0.4,3.8-0.4h3.6h6.2h0.3c0.3,0,0.5-0.2,0.5-0.5C58.1,14,57.9,13.8,57.6,13.8"/>
</svg>
