<?xml version="1.0" encoding="utf-8"?>
<!-- Generator: Adobe Illustrator 22.1.0, SVG Export Plug-In . SVG Version: 6.00 Build 0)  -->
<svg version="1.1" xmlns="http://www.w3.org/2000/svg" xmlns:xlink="http://www.w3.org/1999/xlink" x="0px" y="0px"
	 viewBox="0 0 100 96.5" style="enable-background:new 0 0 100 96.5;" xml:space="preserve">
<style type="text/css">
	.st0{fill:#FFFFFF;}
</style>
<g id="Camada_2">
</g>
<g id="Camada_1">
	<path class="st0" d="M86.7,50L86.7,50h8.1c2.1,0,3.4-2.3,2.3-4.1L82.3,22.2c-1.1-1.7-3.5-1.7-4.6,0L62.9,45.9
		c-1.1,1.8,0.2,4.1,2.3,4.1h8.1c0,0.6,0,1.3-0.1,2c-0.9,14.2-12.5,25.7-26.7,26.6C28.8,79.7,14.3,64.7,16.1,47
		C17.5,33.8,27.9,23.2,41,21.6c5.5-0.7,10.8,0.2,15.4,2.3c1.5,0.7,3.3,0.1,4.1-1.3l3.6-6c1-1.6,0.3-3.8-1.4-4.6
		c-5.9-2.8-12.5-4.3-19.5-4C21.5,8.7,3.7,26.1,2.6,47.7c-1.3,24.2,18,44.4,42,44.4C67.8,92.2,86.7,73.3,86.7,50z"/>
</g>
</svg>
